[gd_scene load_steps=2 format=2]

[ext_resource path="res://src/scenes/buttons/MenuButton.tscn" type="PackedScene" id=1]




[node name="MenuButton" instance=ExtResource( 1 )]

[node name="Label" parent="." index="0"]
text = "CREDITS"
