[gd_scene load_steps=5 format=2]

[ext_resource path="res://assets/sprites/buttons/down.png" type="Texture" id=1]
[ext_resource path="res://assets/sprites/buttons/left.png" type="Texture" id=2]
[ext_resource path="res://assets/sprites/buttons/right.png" type="Texture" id=3]
[ext_resource path="res://assets/sprites/buttons/up.png" type="Texture" id=4]

[node name="Options" type="Node2D"]

[node name="Down" type="Sprite" parent="."]
visible = false
position = Vector2( 0, 138.668 )
scale = Vector2( 0.503726, 0.533287 )
z_index = 2
z_as_relative = false
texture = ExtResource( 1 )

[node name="Left" type="Sprite" parent="."]
visible = false
position = Vector2( 0, 138.668 )
scale = Vector2( 0.501444, 0.537346 )
z_index = 2
z_as_relative = false
texture = ExtResource( 2 )

[node name="Right" type="Sprite" parent="."]
visible = false
position = Vector2( 0, 138.668 )
scale = Vector2( 0.500308, 0.537165 )
z_index = 2
z_as_relative = false
texture = ExtResource( 3 )

[node name="Up" type="Sprite" parent="."]
visible = false
position = Vector2( 0, 138.668 )
scale = Vector2( 0.508803, 0.537659 )
z_index = 2
z_as_relative = false
texture = ExtResource( 4 )
